{
    "prepare_queue": {
        "installed": [],
        "uninstalled": []
    },
    "config_munge": {
        "files": {
            "config.xml": {
                "parents": {
                    "/*": [
                        {
                            "xml": "<feature name=\"Device\"><param name=\"browser-package\" value=\"Device\" /></feature>",
                            "count": 1
                        },
                        {
                            "xml": "<feature name=\"FacebookConnectPlugin\"><param name=\"browser-package\" value=\"FacebookConnectPluginBrowser\" /><param name=\"onload\" value=\"true\" /></feature>",
                            "count": 1
                        },
                        {
                            "xml": "<plugin name=\"FacebookConnectPlugin\" value=\"FacebookConnectPlugin\" />",
                            "count": 1
                        },
                        {
                            "xml": "<access origin=\"https://m.facebook.com\" />",
                            "count": 1
                        },
                        {
                            "xml": "<access origin=\"https://connect.facebook.net\" />",
                            "count": 1
                        },
                        {
                            "xml": "<access origin=\"https://graph.facebook.com\" />",
                            "count": 1
                        },
                        {
                            "xml": "<access origin=\"https://api.facebook.com\" />",
                            "count": 1
                        },
                        {
                            "xml": "<access origin=\"https://*.fbcdn.net\" />",
                            "count": 1
                        },
                        {
                            "xml": "<access origin=\"https://*.akamaihd.net\" />",
                            "count": 1
                        },
                        {
                            "xml": "<feature name=\"NativeStorage\"><param name=\"browser-package\" value=\"NativeStorage\" /></feature>",
                            "count": 1
                        }
                    ]
                }
            }
        }
    },
    "installed_plugins": {
        "com.bunkerpalace.cordova.YoutubeVideoPlayer": {
            "PACKAGE_NAME": "com.ionicframework.ioncityview532192"
        },
        "cordova-plugin-console": {
            "PACKAGE_NAME": "com.ionicframework.ioncityview532192"
        },
        "cordova-plugin-device": {
            "PACKAGE_NAME": "com.ionicframework.ioncityview532192"
        },
        "cordova-plugin-facebook4": {
            "APP_ID": "1049458691821168",
            "APP_NAME": "ionicfbapp",
            "PACKAGE_NAME": "com.ionicframework.ioncityview532192"
        },
        "cordova-plugin-googlemaps": {
            "PACKAGE_NAME": "com.ionicframework.ioncityview532192"
        },
        "cordova-plugin-nativestorage": {
            "PACKAGE_NAME": "com.ionicframework.ioncityview532192"
        },
        "cordova-plugin-splashscreen": {
            "PACKAGE_NAME": "com.ionicframework.ioncityview532192"
        },
        "cordova-plugin-statusbar": {
            "PACKAGE_NAME": "com.ionicframework.ioncityview532192"
        },
        "cordova-plugin-whitelist": {
            "PACKAGE_NAME": "com.ionicframework.ioncityview532192"
        },
        "cordova-plugin-x-socialsharing": {
            "PACKAGE_NAME": "com.ionicframework.ioncityview532192"
        },
        "cordova-sqlite-storage": {
            "PACKAGE_NAME": "com.ionicframework.ioncityview532192"
        },
        "ionic-plugin-keyboard": {
            "PACKAGE_NAME": "com.ionicframework.ioncityview532192"
        },
        "mx.ferreyra.callnumber": {
            "PACKAGE_NAME": "com.ionicframework.ioncityview532192"
        },
        "cordova-sms-plugin": {
            "PACKAGE_NAME": "com.ionicframework.ioncityview532192"
        },
        "cordova-plugin-x-toast": {
            "PACKAGE_NAME": "com.ionicframework.ioncityview532192"
        }
    },
    "dependent_plugins": {},
    "modules": [
        {
            "file": "plugins/com.bunkerpalace.cordova.YoutubeVideoPlayer/plugins/com.bunkerpalace.cordova.YoutubeVideoPlayer/www/YoutubeVideoPlayer.js",
            "id": "com.bunkerpalace.cordova.YoutubeVideoPlayer.YoutubeVideoPlayer",
            "pluginId": "com.bunkerpalace.cordova.YoutubeVideoPlayer",
            "clobbers": [
                "YoutubeVideoPlayer"
            ]
        },
        {
            "file": "plugins/cordova-plugin-device/www/device.js",
            "id": "cordova-plugin-device.device",
            "pluginId": "cordova-plugin-device",
            "clobbers": [
                "device"
            ]
        },
        {
            "file": "plugins/cordova-plugin-device/src/browser/DeviceProxy.js",
            "id": "cordova-plugin-device.DeviceProxy",
            "pluginId": "cordova-plugin-device",
            "runs": true
        },
        {
            "file": "plugins/cordova-plugin-facebook4/www/facebook-browser.js",
            "id": "cordova-plugin-facebook4.FacebookConnectPluginBrowser",
            "pluginId": "cordova-plugin-facebook4",
            "clobbers": [
                "facebookConnectPlugin"
            ]
        },
        {
            "file": "plugins/cordova-plugin-googlemaps/www/googlemaps-cdv-plugin.js",
            "id": "cordova-plugin-googlemaps.cordova-plugin-googlemaps",
            "pluginId": "cordova-plugin-googlemaps",
            "clobbers": [
                "cordova-plugin-googlemaps"
            ]
        },
        {
            "file": "plugins/cordova-plugin-nativestorage/www/mainHandle.js",
            "id": "cordova-plugin-nativestorage.mainHandle",
            "pluginId": "cordova-plugin-nativestorage",
            "clobbers": [
                "NativeStorage"
            ]
        },
        {
            "file": "plugins/cordova-plugin-nativestorage/www/LocalStorageHandle.js",
            "id": "cordova-plugin-nativestorage.LocalStorageHandle",
            "pluginId": "cordova-plugin-nativestorage"
        },
        {
            "file": "plugins/cordova-plugin-nativestorage/www/NativeStorageError.js",
            "id": "cordova-plugin-nativestorage.NativeStorageError",
            "pluginId": "cordova-plugin-nativestorage"
        },
        {
            "file": "plugins/cordova-plugin-splashscreen/www/splashscreen.js",
            "id": "cordova-plugin-splashscreen.SplashScreen",
            "pluginId": "cordova-plugin-splashscreen",
            "clobbers": [
                "navigator.splashscreen"
            ]
        },
        {
            "file": "plugins/cordova-plugin-splashscreen/src/browser/SplashScreenProxy.js",
            "id": "cordova-plugin-splashscreen.SplashScreenProxy",
            "pluginId": "cordova-plugin-splashscreen",
            "runs": true
        },
        {
            "file": "plugins/cordova-plugin-statusbar/www/statusbar.js",
            "id": "cordova-plugin-statusbar.statusbar",
            "pluginId": "cordova-plugin-statusbar",
            "clobbers": [
                "window.StatusBar"
            ]
        },
        {
            "file": "plugins/cordova-plugin-statusbar/src/browser/StatusBarProxy.js",
            "id": "cordova-plugin-statusbar.StatusBarProxy",
            "pluginId": "cordova-plugin-statusbar",
            "runs": true
        },
        {
            "file": "plugins/cordova-plugin-x-socialsharing/www/SocialSharing.js",
            "id": "cordova-plugin-x-socialsharing.SocialSharing",
            "pluginId": "cordova-plugin-x-socialsharing",
            "clobbers": [
                "window.plugins.socialsharing"
            ]
        },
        {
            "file": "plugins/cordova-sqlite-storage/www/SQLitePlugin.js",
            "id": "cordova-sqlite-storage.SQLitePlugin",
            "pluginId": "cordova-sqlite-storage",
            "clobbers": [
                "SQLitePlugin"
            ]
        },
        {
            "file": "plugins/ionic-plugin-keyboard/www/browser/keyboard.js",
            "id": "ionic-plugin-keyboard.keyboard",
            "pluginId": "ionic-plugin-keyboard",
            "clobbers": [
                "cordova.plugins.Keyboard"
            ],
            "runs": true
        },
        {
            "file": "plugins/mx.ferreyra.callnumber/www/CallNumber.js",
            "id": "mx.ferreyra.callnumber.CallNumber",
            "pluginId": "mx.ferreyra.callnumber",
            "clobbers": [
                "call"
            ]
        },
        {
            "file": "plugins/cordova-sms-plugin/www/sms.js",
            "id": "cordova-sms-plugin.Sms",
            "pluginId": "cordova-sms-plugin",
            "clobbers": [
                "window.sms"
            ]
        },
        {
            "file": "plugins/cordova-plugin-x-toast/www/Toast.js",
            "id": "cordova-plugin-x-toast.Toast",
            "pluginId": "cordova-plugin-x-toast",
            "clobbers": [
                "window.plugins.toast"
            ]
        },
        {
            "file": "plugins/cordova-plugin-x-toast/test/tests.js",
            "id": "cordova-plugin-x-toast.tests",
            "pluginId": "cordova-plugin-x-toast"
        }
    ],
    "plugin_metadata": {
        "com.bunkerpalace.cordova.YoutubeVideoPlayer": "1.0.1",
        "cordova-plugin-console": "1.0.6",
        "cordova-plugin-device": "1.1.5",
        "cordova-plugin-facebook4": "1.7.4",
        "cordova-plugin-googlemaps": "1.4.0",
        "cordova-plugin-nativestorage": "2.2.2",
        "cordova-plugin-splashscreen": "4.0.2",
        "cordova-plugin-statusbar": "2.2.2",
        "cordova-plugin-whitelist": "1.3.2",
        "cordova-plugin-x-socialsharing": "5.1.7",
        "cordova-sqlite-storage": "2.0.2",
        "ionic-plugin-keyboard": "2.2.1",
        "mx.ferreyra.callnumber": "0.0.2",
        "cordova-sms-plugin": "0.1.11",
        "cordova-plugin-x-toast": "2.6.0"
    }
}